\relax 
\providecommand\hyper@newdestlabel[2]{}
\providecommand\HyperFirstAtBeginDocument{\AtBeginDocument}
\HyperFirstAtBeginDocument{\ifx\hyper@anchor\@undefined
\global\let\oldcontentsline\contentsline
\gdef\contentsline#1#2#3#4{\oldcontentsline{#1}{#2}{#3}}
\global\let\oldnewlabel\newlabel
\gdef\newlabel#1#2{\newlabelxx{#1}#2}
\gdef\newlabelxx#1#2#3#4#5#6{\oldnewlabel{#1}{{#2}{#3}}}
\AtEndDocument{\ifx\hyper@anchor\@undefined
\let\contentsline\oldcontentsline
\let\newlabel\oldnewlabel
\fi}
\fi}
\global\let\hyper@last\relax 
\gdef\HyperFirstAtBeginDocument#1{#1}
\providecommand\HyField@AuxAddToFields[1]{}
\providecommand\HyField@AuxAddToCoFields[2]{}
\@writefile{nav}{\headcommand {\slideentry {0}{0}{1}{1/1}{}{0}}}
\@writefile{nav}{\headcommand {\beamer@framepages {1}{1}}}
\@writefile{nav}{\headcommand {\slideentry {0}{0}{2}{2/2}{}{0}}}
\@writefile{nav}{\headcommand {\beamer@framepages {2}{2}}}
\@writefile{toc}{\beamer@sectionintoc {1}{Tema}{3}{0}{1}}
\@writefile{nav}{\headcommand {\beamer@sectionpages {1}{2}}}
\@writefile{nav}{\headcommand {\beamer@subsectionpages {1}{2}}}
\@writefile{nav}{\headcommand {\sectionentry {1}{Tema}{3}{Tema}{0}}}
\newlabel{sec:tema}{{1}{3}{Tema}{Doc-Start}{}}
\@writefile{snm}{\beamer@slide {sec:tema}{3}}
\@writefile{nav}{\headcommand {\slideentry {1}{0}{1}{3/3}{}{0}}}
\@writefile{nav}{\headcommand {\beamer@framepages {3}{3}}}
\@writefile{toc}{\beamer@sectionintoc {2}{Motiva\IeC {\c c}\IeC {\~a}o}{4}{0}{2}}
\@writefile{nav}{\headcommand {\beamer@sectionpages {3}{3}}}
\@writefile{nav}{\headcommand {\beamer@subsectionpages {3}{3}}}
\@writefile{nav}{\headcommand {\sectionentry {2}{Motiva\IeC {\c c}\IeC {\~a}o}{4}{Motiva\IeC {\c c}\IeC {\~a}o}{0}}}
\newlabel{sec:motivacao}{{2}{4}{Motivação}{Doc-Start}{}}
\@writefile{snm}{\beamer@slide {sec:motivacao}{4}}
\@writefile{nav}{\headcommand {\slideentry {2}{0}{1}{4/4}{}{0}}}
\@writefile{nav}{\headcommand {\beamer@framepages {4}{4}}}
\@writefile{toc}{\beamer@sectionintoc {3}{Ferramentas}{5}{0}{3}}
\@writefile{nav}{\headcommand {\beamer@sectionpages {4}{4}}}
\@writefile{nav}{\headcommand {\beamer@subsectionpages {4}{4}}}
\@writefile{nav}{\headcommand {\sectionentry {3}{Ferramentas}{5}{Ferramentas}{0}}}
\newlabel{sec:ferramentas}{{3}{5}{Ferramentas}{Doc-Start}{}}
\@writefile{snm}{\beamer@slide {sec:ferramentas}{5}}
\@writefile{nav}{\headcommand {\slideentry {3}{0}{1}{5/5}{}{0}}}
\@writefile{nav}{\headcommand {\beamer@framepages {5}{5}}}
\@writefile{toc}{\beamer@sectionintoc {4}{Estrat\IeC {\'e}gia}{6}{0}{4}}
\@writefile{nav}{\headcommand {\beamer@sectionpages {5}{5}}}
\@writefile{nav}{\headcommand {\beamer@subsectionpages {5}{5}}}
\@writefile{nav}{\headcommand {\sectionentry {4}{Estrat\IeC {\'e}gia}{6}{Estrat\IeC {\'e}gia}{0}}}
\newlabel{sec:estrategia}{{4}{6}{Estratégia}{Doc-Start}{}}
\@writefile{snm}{\beamer@slide {sec:estrategia}{6}}
\@writefile{nav}{\headcommand {\slideentry {4}{0}{1}{6/6}{}{0}}}
\@writefile{nav}{\headcommand {\beamer@framepages {6}{6}}}
\@writefile{toc}{\beamer@subsectionintoc {4}{1}{Prepara\IeC {\c c}\IeC {\~a}o do banco}{7}{0}{4}}
\@writefile{nav}{\headcommand {\beamer@subsectionpages {6}{6}}}
\@writefile{nav}{\headcommand {\beamer@subsectionentry {0}{4}{1}{7}{Prepara\IeC {\c c}\IeC {\~a}o do banco}}}
\newlabel{sec:estrategia:preparacao}{{1}{7}{Preparação do banco}{Doc-Start}{}}
\@writefile{snm}{\beamer@slide {sec:estrategia:preparacao}{7}}
\@writefile{nav}{\headcommand {\slideentry {4}{1}{1}{7/7}{Prepara\IeC {\c c}\IeC {\~a}o do banco}{0}}}
\@writefile{nav}{\headcommand {\beamer@framepages {7}{7}}}
\@writefile{nav}{\headcommand {\slideentry {4}{1}{2}{8/8}{Prepara\IeC {\c c}\IeC {\~a}o do banco}{0}}}
\@writefile{nav}{\headcommand {\beamer@framepages {8}{8}}}
\@writefile{toc}{\beamer@subsectionintoc {4}{2}{Desenvolvimento do recomendador}{9}{0}{4}}
\@writefile{nav}{\headcommand {\beamer@subsectionpages {7}{8}}}
\@writefile{nav}{\headcommand {\beamer@subsectionentry {0}{4}{2}{9}{Desenvolvimento do recomendador}}}
\newlabel{sec:estrategia:desenvolvimento_recomendador}{{2}{9}{Desenvolvimento do recomendador}{Doc-Start}{}}
\@writefile{snm}{\beamer@slide {sec:estrategia:desenvolvimento_recomendador}{9}}
\@writefile{nav}{\headcommand {\slideentry {4}{2}{1}{9/9}{Desenvolvimento do recomendador}{0}}}
\@writefile{nav}{\headcommand {\beamer@framepages {9}{9}}}
\@writefile{toc}{\beamer@sectionintoc {5}{Descobertas}{10}{0}{5}}
\@writefile{nav}{\headcommand {\beamer@sectionpages {6}{9}}}
\@writefile{nav}{\headcommand {\beamer@subsectionpages {9}{9}}}
\@writefile{nav}{\headcommand {\sectionentry {5}{Descobertas}{10}{Descobertas}{0}}}
\newlabel{sec:descobertas}{{5}{10}{Descobertas}{Doc-Start}{}}
\@writefile{snm}{\beamer@slide {sec:descobertas}{10}}
\@writefile{nav}{\headcommand {\slideentry {5}{0}{1}{10/10}{}{0}}}
\@writefile{nav}{\headcommand {\beamer@framepages {10}{10}}}
\@writefile{toc}{\beamer@sectionintoc {6}{Rela\IeC {\c c}\IeC {\~a}o com a disciplina}{11}{0}{6}}
\@writefile{nav}{\headcommand {\beamer@sectionpages {10}{10}}}
\@writefile{nav}{\headcommand {\beamer@subsectionpages {10}{10}}}
\@writefile{nav}{\headcommand {\sectionentry {6}{Rela\IeC {\c c}\IeC {\~a}o com a disciplina}{11}{Rela\IeC {\c c}\IeC {\~a}o com a disciplina}{0}}}
\newlabel{sec:relacao}{{6}{11}{Relação com a disciplina}{Doc-Start}{}}
\@writefile{snm}{\beamer@slide {sec:relacao}{11}}
\@writefile{nav}{\headcommand {\slideentry {6}{0}{1}{11/11}{}{0}}}
\@writefile{nav}{\headcommand {\beamer@framepages {11}{11}}}
\@writefile{toc}{\beamer@sectionintoc {7}{Conclus\IeC {\~o}es}{12}{0}{7}}
\@writefile{nav}{\headcommand {\beamer@sectionpages {11}{11}}}
\@writefile{nav}{\headcommand {\beamer@subsectionpages {11}{11}}}
\@writefile{nav}{\headcommand {\sectionentry {7}{Conclus\IeC {\~o}es}{12}{Conclus\IeC {\~o}es}{0}}}
\newlabel{sec:conclusoes}{{7}{12}{Conclusões}{Doc-Start}{}}
\@writefile{snm}{\beamer@slide {sec:conclusoes}{12}}
\@writefile{nav}{\headcommand {\slideentry {7}{0}{1}{12/12}{}{0}}}
\@writefile{nav}{\headcommand {\beamer@framepages {12}{12}}}
\@writefile{nav}{\headcommand {\beamer@partpages {1}{12}}}
\@writefile{nav}{\headcommand {\beamer@subsectionpages {12}{12}}}
\@writefile{nav}{\headcommand {\beamer@sectionpages {12}{12}}}
\@writefile{nav}{\headcommand {\beamer@documentpages {12}}}
\@writefile{nav}{\headcommand {\gdef \inserttotalframenumber {12}}}
