\beamer@sectionintoc {1}{Tema}{3}{0}{1}
\beamer@sectionintoc {2}{Motiva\IeC {\c c}\IeC {\~a}o}{4}{0}{2}
\beamer@sectionintoc {3}{Ferramentas}{5}{0}{3}
\beamer@sectionintoc {4}{Estrat\IeC {\'e}gia}{6}{0}{4}
\beamer@subsectionintoc {4}{1}{Prepara\IeC {\c c}\IeC {\~a}o do banco}{7}{0}{4}
\beamer@subsectionintoc {4}{2}{Desenvolvimento do recomendador}{9}{0}{4}
\beamer@sectionintoc {5}{Descobertas}{10}{0}{5}
\beamer@sectionintoc {6}{Rela\IeC {\c c}\IeC {\~a}o com a disciplina}{11}{0}{6}
\beamer@sectionintoc {7}{Conclus\IeC {\~o}es}{12}{0}{7}
